run/wave/QuireToPosit/QuireToPosit14_8_1.vcd
$version Generated by VerilatedVcd $end
$date Thu Sep 16 15:19:43 2021
 $end
$timescale   1ns $end

 $scope module TOP $end
  $var wire  1 4 clock $end
  $var wire  1 6 io_inValid $end
  $var wire  1 : io_outValid $end
  $var wire  8 9 io_positOut [7:0] $end
  $var wire 64 7 io_quireIn [63:0] $end
  $var wire  1 5 reset $end
  $scope module QuireToPosit14_8_1 $end
   $var wire  8 ) absRealScale [7:0] $end
   $var wire  1 4 clock $end
   $var wire  1 6 io_inValid $end
   $var wire  1 : io_outValid $end
   $var wire  8 9 io_positOut [7:0] $end
   $var wire 64 7 io_quireIn [63:0] $end
   $var wire  4 1 outRawFloat_fraction [3:0] $end
   $var wire  3 2 outRawFloat_grs [2:0] $end
   $var wire  1 < outRawFloat_isNaR $end
   $var wire  1 = outRawFloat_isZero $end
   $var wire  5 3 outRawFloat_scale [4:0] $end
   $var wire  1 ( overflow $end
   $var wire 64 * quireLeftShift [63:0] $end
   $var wire 64 , quireRightShift [63:0] $end
   $var wire 63 # quireXOR [62:0] $end
   $var wire  7 0 realFGRS [6:0] $end
   $var wire  7 . realFGRSTmp1 [6:0] $end
   $var wire  7 / realFGRSTmp2 [6:0] $end
   $var wire  8 & realScale [7:0] $end
   $var wire  1 5 reset $end
   $var wire  7 % scaleBias [6:0] $end
   $var wire  1 ; tailIsZero $end
   $var wire  1 ' underflow $end
  $upscope $end
 $upscope $end
$enddefinitions $end


#0
b000000000000000000000000000000000000000000000000000000000000000 #
b1000000 %
b11100111 &
1'
0(
b00011001 )
b0000000000000000000000000000000000000000000000000000000000000000 *
b0000000000000000000000000000000000000000000000000000000000000000 ,
b0000000 .
b0000000 /
b0000000 0
b0000 1
b000 2
b10011 3
04
15
06
b0000000000000000000000000000000000000000000000000000000000000000 7
b00000000 9
0:
1;
0<
1=
#1
14
#2
04
#3
14
#4
04
#5
14
#6
04
#7
14
#8
04
#9
14
#10
b000000000000000000000000000000000000001100000000000000000000000 #
b1011001 %
b00000000 &
0'
b00000000 )
b0000000000000000000000000000000000000001000000000000000000000000 *
b0000000000000000000000000000000000000001000000000000000000000000 ,
b00000 3
04
05
16
b0000000000000000000000000000000000000001000000000000000000000000 7
0;
0=
#11
14
b01000000 9
1:
#12
b000000000000000000000000000000000000111110000000000000000000000 #
b1011011 %
b00000010 &
b00000010 )
b1111111111111111111111111111111111101010000000000000000000000000 *
b0011111111111111111111111111111111111110101000000000000000000000 ,
b1010000 /
b1010000 0
b1010 1
b00010 3
04
b1111111111111111111111111111111111111010100000000000000000000000 7
#13
14
b10011101 9
#14
b000000000000000000000000000000000001100110100000000000000000000 #
b1011100 %
b00000011 &
b00000011 )
b1111111111111111111111111111111110111011000000000000000000000000 *
b0001111111111111111111111111111111111110111011000000000000000000 ,
b1110110 /
b1110110 0
b1110 1
b110 2
b00011 3
04
b1111111111111111111111111111111111110111011000000000000000000000 7
#15
14
b10010111 9
#16
b000000000000000000000000000000000001110010100000000000000000000 #
b1111111111111111111111111111111110100011000000000000000000000000 *
b0001111111111111111111111111111111111110100011000000000000000000 ,
b1000110 /
b1000110 0
b1000 1
04
b1111111111111111111111111111111111110100011000000000000000000000 7
#17
14
b10010100 9
#18
b000000000000000000000000000000000001111110100000000000000000000 #
b1111111111111111111111111111111110101011000000000000000000000000 *
b0001111111111111111111111111111111111110101011000000000000000000 ,
b1010110 /
b1010110 0
b1010 1
04
b1111111111111111111111111111111111110101011000000000000000000000 7
#19
14
b10010101 9
#20
b000000000000000000000000000000000001111110010000000000000000000 #
b1111111111111111111111111111111110101011100000000000000000000000 *
b0001111111111111111111111111111111111110101011100000000000000000 ,
b1000000 .
b1010111 /
b1010111 0
b111 2
04
b1111111111111111111111111111111111110101011100000000000000000000 7
#21
14
#22
b000000000000000100000000000000000001111110010000000000000000000 #
b1110000 %
b00010111 &
1(
b00010111 )
b1111111111111010101110000000000000000000000000000000000000000000 *
b0000000000000000000000000000000000000001111111111111111111101010 ,
b0000000 .
b1111111 /
b1111111 0
b1111 1
b01100 3
04
b0000000000000000111111111111111111110101011100000000000000000000 7
#23
14
b01111111 9
