run/wave/QuireToPosit/QuireToPosit30_8_2.vcd
$version Generated by VerilatedVcd $end
$date Thu Sep 16 15:19:47 2021
 $end
$timescale   1ns $end

 $scope module TOP $end
  $var wire  1 : clock $end
  $var wire  1 < io_inValid $end
  $var wire  1 B io_outValid $end
  $var wire  8 A io_positOut [7:0] $end
  $var wire 128 = io_quireIn [127:0] $end
  $var wire  1 ; reset $end
  $scope module QuireToPosit30_8_2 $end
   $var wire  9 + absRealScale [8:0] $end
   $var wire  1 : clock $end
   $var wire  1 < io_inValid $end
   $var wire  1 B io_outValid $end
   $var wire  8 A io_positOut [7:0] $end
   $var wire 128 = io_quireIn [127:0] $end
   $var wire  3 7 outRawFloat_fraction [2:0] $end
   $var wire  3 8 outRawFloat_grs [2:0] $end
   $var wire  1 D outRawFloat_isNaR $end
   $var wire  1 E outRawFloat_isZero $end
   $var wire  6 9 outRawFloat_scale [5:0] $end
   $var wire  1 * overflow $end
   $var wire 128 , quireLeftShift [127:0] $end
   $var wire 128 0 quireRightShift [127:0] $end
   $var wire 127 # quireXOR [126:0] $end
   $var wire  6 6 realFGRS [5:0] $end
   $var wire  6 4 realFGRSTmp1 [5:0] $end
   $var wire  6 5 realFGRSTmp2 [5:0] $end
   $var wire  9 ( realScale [8:0] $end
   $var wire  1 ; reset $end
   $var wire  8 ' scaleBias [7:0] $end
   $var wire  1 C tailIsZero $end
   $var wire  1 ) underflow $end
  $upscope $end
 $upscope $end
$enddefinitions $end


#0
b0000000000000000000000000000000000000000000000000000000000000000000000000000000000000000000000000000000000000000000000000000000 #
b10000000 '
b111001111 (
1)
0*
b000110001 +
b00000000000000000000000000000000000000000000000000000000000000000000000000000000000000000000000000000000000000000000000000000000 ,
b00000000000000000000000000000000000000000000000000000000000000000000000000000000000000000000000000000000000000000000000000000000 0
b000000 4
b000000 5
b000000 6
b000 7
b000 8
b100111 9
0:
1;
0<
b00000000000000000000000000000000000000000000000000000000000000000000000000000000000000000000000000000000000000000000000000000000 =
b00000000 A
0B
1C
0D
1E
#1
1:
#2
0:
#3
1:
#4
0:
#5
1:
#6
0:
#7
1:
#8
0:
#9
1:
#10
0:
0;
1<
#11
1:
1B
#12
b0000000000000000000000000000000000000000000000000000000000000000000000000000001100000000000000000000000000000000000000000000000 #
b10110001 '
b000000000 (
0)
b000000000 +
b00000000000000000000000000000000000000000000000000000000000000000000000000000001000000000000000000000000000000000000000000000000 ,
b00000000000000000000000000000000000000000000000000000000000000000000000000000001000000000000000000000000000000000000000000000000 0
b000000 9
0:
b00000000000000000000000000000000000000000000000000000000000000000000000000000001000000000000000000000000000000000000000000000000 =
0C
0E
#13
1:
b01000000 A
#14
b0000000000000000000000000000000000000000000000000000000000000000000000000000111110000000000000000000000000000000000000000000000 #
b10110011 '
b000000010 (
b000000010 +
b11111111111111111111111111111111111111111111111111111111111111111111111111101010000000000000000000000000000000000000000000000000 ,
b00111111111111111111111111111111111111111111111111111111111111111111111111111110101000000000000000000000000000000000000000000000 0
b101000 5
b101000 6
b101 7
b000010 9
0:
b11111111111111111111111111111111111111111111111111111111111111111111111111111010100000000000000000000000000000000000000000000000 =
#15
1:
b10101101 A
#16
b0000000000000000000000000000000000000000000000000000000000000000000000000001100111000000000000000000000000000000000000000000000 #
b10110100 '
b000000011 (
b000000011 +
b11111111111111111111111111111111111111111111111111111111111111111111111110111010000000000000000000000000000000000000000000000000 ,
b00011111111111111111111111111111111111111111111111111111111111111111111111111110111010000000000000000000000000000000000000000000 0
b111010 5
b111010 6
b111 7
b010 8
b000011 9
0:
b11111111111111111111111111111111111111111111111111111111111111111111111111110111010000000000000000000000000000000000000000000000 =
#17
1:
b10100111 A
#18
b0000000000000000000000000000000000000000000000000000000000000000000000000001110011000000000000000000000000000000000000000000000 #
b11111111111111111111111111111111111111111111111111111111111111111111111110100010000000000000000000000000000000000000000000000000 ,
b00011111111111111111111111111111111111111111111111111111111111111111111111111110100010000000000000000000000000000000000000000000 0
b100010 5
b100010 6
b100 7
0:
b11111111111111111111111111111111111111111111111111111111111111111111111111110100010000000000000000000000000000000000000000000000 =
#19
1:
b10100100 A
#20
b0000000000000000000000000000000000000000000000000000000000000000000000000001111111000000000000000000000000000000000000000000000 #
b11111111111111111111111111111111111111111111111111111111111111111111111110101010000000000000000000000000000000000000000000000000 ,
b00011111111111111111111111111111111111111111111111111111111111111111111111111110101010000000000000000000000000000000000000000000 0
b101010 5
b101010 6
b101 7
0:
b11111111111111111111111111111111111111111111111111111111111111111111111111110101010000000000000000000000000000000000000000000000 =
#21
1:
b10100101 A
#22
b0000000000000000000000000000000000000000000000000000000000000000000000000001111111110000000000000000000000000000000000000000000 #
b11111111111111111111111111111111111111111111111111111111111111111111111110101010100000000000000000000000000000000000000000000000 ,
b00011111111111111111111111111111111111111111111111111111111111111111111111111110101010100000000000000000000000000000000000000000 0
b100000 4
b101011 5
b101011 6
b011 8
0:
b11111111111111111111111111111111111111111111111111111111111111111111111111110101010100000000000000000000000000000000000000000000 =
