run/wave/PositFMA/PositFMA32_2.vcd
$version Generated by VerilatedVcd $end
$date Thu Sep 16 15:18:49 2021
 $end
$timescale   1ns $end

 $scope module TOP $end
  $var wire  1 a clock $end
  $var wire 32 e io_A [31:0] $end
  $var wire 32 f io_B [31:0] $end
  $var wire 32 g io_C [31:0] $end
  $var wire 32 h io_F [31:0] $end
  $var wire  2 d io_fmaOp [1:0] $end
  $var wire  1 c io_inValid $end
  $var wire  1 i io_outValid $end
  $var wire  1 b reset $end
  $scope module PositFMA32_2 $end
   $var wire 27 [ addFrac_phase2 [26:0] $end
   $var wire  1 Q addOne $end
   $var wire  8 ] addScale_phase2 [7:0] $end
   $var wire  1 ^ addSign_phase2 $end
   $var wire  1 P addTwo $end
   $var wire  1 _ addZero_phase2 $end
   $var wire  1 a clock $end
   $var wire 27 C decA_fraction [26:0] $end
   $var wire  1 D decA_isNaR $end
   $var wire  1 E decA_isZero $end
   $var wire  8 F decA_scale [7:0] $end
   $var wire 27 G decB_fraction [26:0] $end
   $var wire  1 j decB_isNaR $end
   $var wire  1 k decB_isZero $end
   $var wire  8 l decB_scale [7:0] $end
   $var wire 27 H decC_fraction [26:0] $end
   $var wire  1 I decC_isNaR $end
   $var wire  1 J decC_isZero $end
   $var wire  8 K decC_scale [7:0] $end
   $var wire  1 ? decF_isZero $end
   $var wire  8 @ decF_scale [7:0] $end
   $var wire  3 R expBias [2:0] $end
   $var wire 57 # extAddSig [56:0] $end
   $var wire  9 & greaterScale [8:0] $end
   $var wire 57 ) greaterSig [56:0] $end
   $var wire 29 < grsTmp [28:0] $end
   $var wire  2 O head2 [1:0] $end
   $var wire  1 ` inValid_phase2 $end
   $var wire 32 e io_A [31:0] $end
   $var wire 32 f io_B [31:0] $end
   $var wire 32 g io_C [31:0] $end
   $var wire 32 h io_F [31:0] $end
   $var wire  2 d io_fmaOp [1:0] $end
   $var wire  1 c io_inValid $end
   $var wire  1 i io_outValid $end
   $var wire  1 % mulGreater $end
   $var wire  9 o mulScale [8:0] $end
   $var wire  9 \ mulScale_phase2 [8:0] $end
   $var wire 57 V mulSig [56:0] $end
   $var wire 56 T mulSigTmp [55:0] $end
   $var wire 57 Y mulSig_phase2 [56:0] $end
   $var wire  1 S mulSign $end
   $var wire 56 8 normalFracTmp [55:0] $end
   $var wire  1 m outIsNaR $end
   $var wire  1 X outIsNaR_phase2 $end
   $var wire  1 > overflow $end
   $var wire 58 / rawSumSig [57:0] $end
   $var wire 32 A realA [31:0] $end
   $var wire 32 B realC [31:0] $end
   $var wire  1 b reset $end
   $var wire  9 ( scaleDiff [8:0] $end
   $var wire  6 7 shiftValue [5:0] $end
   $var wire 29 L sigA [28:0] $end
   $var wire 29 n sigB [28:0] $end
   $var wire 58 M sigP [57:0] $end
   $var wire 58 2 signSumSig [57:0] $end
   $var wire  9 ' smallerScale [8:0] $end
   $var wire 57 - smallerSig [56:0] $end
   $var wire 57 + smallerSigTmp [56:0] $end
   $var wire 27 ; sumFrac [26:0] $end
   $var wire  6 6 sumLZD [5:0] $end
   $var wire  9 : sumScale [8:0] $end
   $var wire  1 1 sumSign $end
   $var wire 57 4 sumXor [56:0] $end
   $var wire  1 = underflow $end
  $upscope $end
 $upscope $end
$enddefinitions $end


#0
b010000000000000000000000000000000000000000000000000000000 #
0%
b000000000 &
b000000000 '
b000000000 (
b010000000000000000000000000000000000000000000000000000000 )
b000000000000000000000000000000000000000000000000000000000 +
b000000000000000000000000000000000000000000000000000000000 -
b0010000000000000000000000000000000000000000000000000000000 /
01
b0010000000000000000000000000000000000000000000000000000000 2
b011000000000000000000000000000000000000000000000000000000 4
b111110 6
b000001 7
b00000000000000000000000000000000000000000000000000000000 8
b000000000 :
b000000000000000000000000000 ;
b00000000000000000000000000000 <
0=
0>
0?
b00000000 @
b00000000000000000000000000000000 A
b00000000000000000000000000000000 B
b000000000000000000000000000 C
0D
1E
b10000100 F
b000000000000000000000000000 G
b000000000000000000000000000 H
0I
1J
b10000100 K
b00000000000000000000000000000 L
b0000000000000000000000000000000000000000000000000000000000 M
b00 O
0P
0Q
b000 R
0S
b00000000000000000000000000000000000000000000000000000000 T
b000000000000000000000000000000000000000000000000000000000 V
0X
b000000000000000000000000000000000000000000000000000000000 Y
b000000000000000000000000000 [
b000000000 \
b00000000 ]
0^
0_
0`
0a
1b
0c
b00 d
b00000000000000000000000000000000 e
b00000000000000000000000000000000 f
b00000000000000000000000000000000 g
b00000000000000000000000000000000 h
0i
0j
1k
b10000100 l
0m
b00000000000000000000000000000 n
b100001000 o
#1
1a
#2
0a
#3
1a
#4
0a
#5
1a
#6
0a
#7
1a
#8
0a
#9
1a
#10
b10000000000000000000000000000000 A
b00000000000000000000000000000001 B
1D
0E
b01111011 F
b110000100000000000000000000 G
0J
b10001000 K
b10000000000000000000000000000 L
b1100011111000000000000000000000000000000000000000000000000 M
b11 O
1Q
b001 R
1S
b00011111000000000000000000000000000000000000000000000000 T
b100011111000000000000000000000000000000000000000000000000 V
0a
0b
1c
b10000000000000000000000000000000 e
b01101111000010000000000000000000 f
b00000000000000000000000000000001 g
0k
b00000111 l
1m
b01110000100000000000000000000 n
b010000011 o
#11
1%
b010000011 &
b110001000 '
b011111011 (
b100011111000000000000000000000000000000000000000000000000 )
b010000000000000000000000000000000000000000000000000000000 +
b0100011111000000000000000000000000000000000000000000000000 /
11
b1100011111000000000000000000000000000000000000000000000000 2
b010010000100000000000000000000000000000000000000000000000 4
b00111110000000000000000000000000000000000000000000000000 8
b010000011 :
b001111100000000000000000000 ;
1>
b01111000 @
1X
b100011111000000000000000000000000000000000000000000000000 Y
b010000011 \
b10001000 ]
1`
1a
#12
b01111001001110001000011000000000 A
b001110001000011000000000000 C
0D
b00001101 F
b01001110001000011000000000000 L
b0010001001010101101110001100000000000000000000000000000000 M
b00 O
0S
b10001001010101101110001100000000000000000000000000000000 T
b010001001010101101110001100000000000000000000000000000000 V
0a
b01111001001110001000011000000000 e
0m
b000010101 o
#13
b000010101 &
b010001101 (
b010001001010101101110001100000000000000000000000000000000 )
b0010001001010101101110001100000000000000000000000000000000 /
01
b0010001001010101101110001100000000000000000000000000000000 2
b011001101111111011001001010000000000000000000000000000000 4
b00010010101011011100011000000000000000000000000000000000 8
b000010101 :
b000100101010110111000110000 ;
0>
b00010101 @
0X
b010001001010101101110001100000000000000000000000000000000 Y
b000010101 \
1a
b10000000000000000000000000000000 h
1i
#14
b10011011011110000000000000000000 A
b00000000000000000000000000000000 B
b110111100000000000000000000 C
b00000101 F
b100010001000000000000000000 G
1J
b10000100 K
b10110111100000000000000000000 L
b1110010000110101111100000000000000000000000000000000000000 M
b11 O
0Q
b000 R
1S
b00100001101011111000000000000000000000000000000000000000 T
b100100001101011111000000000000000000000000000000000000000 V
0a
b10011011011110000000000000000000 e
b01101010001000100000000000000000 f
b00000000000000000000000000000000 g
b00000110 l
b01100010001000000000000000000 n
b000001011 o
#15
b000000000000000000000000000000000000000000000000000000000 #
b000001011 &
b110000100 '
b010000111 (
b100100001101011111000000000000000000000000000000000000000 )
b000000000000000000000000000000000000000000000000000000000 +
b0100100001101011111000000000000000000000000000000000000000 /
11
b1100100001101011111000000000000000000000000000000000000000 2
b010110001011110000100000000000000000000000000000000000000 4
b01000011010111110000000000000000000000000000000000000000 8
b000001011 :
b010000110101111100000000000 ;
b00001011 @
b100100001101011111000000000000000000000000000000000000000 Y
b000001011 \
b10000100 ]
1_
1a
b01111110010001001010101101110010 h
#16
b01011001100000000000000000000000 A
b01100000101000000000000000000000 B
b001100000000000000000000000 C
b00000011 F
b000000000000000000000000000 G
b001010000000000000000000000 H
0J
b00000100 K
b01001100000000000000000000000 L
b0001001100000000000000000000000000000000000000000000000000 M
b00 O
0S
b10011000000000000000000000000000000000000000000000000000 T
b010011000000000000000000000000000000000000000000000000000 V
0a
b01 d
b01011001100000000000000000000000 e
b01000000000000000000000000000000 f
b10011111011000000000000000000000 g
b00000000 l
b01000000000000000000000000000 n
b000000011 o
#17
b010010100000000000000000000000000000000000000000000000000 #
0%
b000000100 &
b000000011 '
b000000001 (
b010010100000000000000000000000000000000000000000000000000 )
b010011000000000000000000000000000000000000000000000000000 +
b001001100000000000000000000000000000000000000000000000000 -
b0011100000000000000000000000000000000000000000000000000000 /
01
b0011100000000000000000000000000000000000000000000000000000 2
b010010000000000000000000000000000000000000000000000000000 4
b11000000000000000000000000000000000000000000000000000000 8
b000000100 :
b110000000000000000000000000 ;
b00000100 @
b010011000000000000000000000000000000000000000000000000000 Y
b001010000000000000000000000 [
b000000011 \
b00000100 ]
0_
1a
b10001000100001101011111000000000 h
#18
b00000000000000000000000000000000 B
b000000000000000000000000000 H
1J
b10000100 K
0a
b00 d
b00000000000000000000000000000000 g
#19
b000000000000000000000000000000000000000000000000000000000 #
1%
b000000011 &
b110000100 '
b001111111 (
b010011000000000000000000000000000000000000000000000000000 )
b000000000000000000000000000000000000000000000000000000000 +
b000000000000000000000000000000000000000000000000000000000 -
b0010011000000000000000000000000000000000000000000000000000 /
b0010011000000000000000000000000000000000000000000000000000 2
b011010100000000000000000000000000000000000000000000000000 4
b00110000000000000000000000000000000000000000000000000000 8
b000000011 :
b001100000000000000000000000 ;
b00000011 @
b000000000000000000000000000 [
b10000100 ]
1_
1a
b01100011000000000000000000000000 h
#20
b00000000000000000000000000000000 A
b00000000000000000000000000000001 B
b000000000000000000000000000 C
1E
b10000100 F
0J
b10001000 K
b00000000000000000000000000000 L
b0000000000000000000000000000000000000000000000000000000000 M
b00000000000000000000000000000000000000000000000000000000 T
b000000000000000000000000000000000000000000000000000000000 V
0a
b00000000000000000000000000000000 e
b00000000000000000000000000000001 g
b110000100 o
#21
b010000000000000000000000000000000000000000000000000000000 #
0%
b110001000 &
b000000100 (
b010000000000000000000000000000000000000000000000000000000 )
b0010000000000000000000000000000000000000000000000000000000 /
b0010000000000000000000000000000000000000000000000000000000 2
b011000000000000000000000000000000000000000000000000000000 4
b00000000000000000000000000000000000000000000000000000000 8
b110001000 :
b000000000000000000000000000 ;
b10001000 @
b000000000000000000000000000000000000000000000000000000000 Y
b110000100 \
b10001000 ]
0_
1a
b01011001100000000000000000000000 h
#22
b11011000000000000000000000000000 A
b00000000000000000000000000000000 B
0E
b11111100 F
1J
b10000100 K
b10000000000000000000000000000 L
b0100000000000000000000000000000000000000000000000000000000 M
b01 O
1P
b010 R
b010000000000000000000000000000000000000000000000000000000 V
0a
b11011000000000000000000000000000 e
b11100100000000000000000000000000 f
b00000000000000000000000000000000 g
b11111010 l
b10000000000000000000000000000 n
b111111000 o
#23
b000000000000000000000000000000000000000000000000000000000 #
1%
b111111000 &
b001110100 (
b111111000 :
b11111000 @
b010000000000000000000000000000000000000000000000000000000 Y
b111111000 \
b10000100 ]
1_
1a
b00000000000000000000000000000001 h
#24
b01100100100010000000000000000000 A
b10011011011110000000000000000000 B
b001000100000000000000000000 C
b00000101 F
b110111100000000000000000000 H
0J
b00000101 K
b01001000100000000000000000000 L
b0001001000100000000000000000000000000000000000000000000000 M
b00 O
0P
b000 R
b10010001000000000000000000000000000000000000000000000000 T
b010010001000000000000000000000000000000000000000000000000 V
0a
b01 d
b01100100100010000000000000000000 e
b01000000000000000000000000000000 f
b01100100100010000000000000000000 g
b00000000 l
b01000000000000000000000000000 n
b000000101 o
#25
b101101111000000000000000000000000000000000000000000000000 #
0%
b000000101 &
b000000101 '
b000000000 (
b101101111000000000000000000000000000000000000000000000000 )
b010010001000000000000000000000000000000000000000000000000 +
b010010001000000000000000000000000000000000000000000000000 -
b1000000000000000000000000000000000000000000000000000000000 /
b0000000000000000000000000000000000000000000000000000000000 2
b000000000000000000000000000000000000000000000000000000000 4
b000110 6
b111001 7
b111001101 :
1?
b11001101 @
b010010001000000000000000000000000000000000000000000000000 Y
b110111100000000000000000000 [
b000000101 \
b00000101 ]
1^
0_
1a
b00010000000000000000000000000000 h
#26
b00000000000000000000000000000000 B
b000000000000000000000000000 H
1J
b10000100 K
b0000000000000000000000000000000000000000000000000000000000 M
b00000000000000000000000000000000000000000000000000000000 T
b000000000000000000000000000000000000000000000000000000000 V
0a
b00 d
b00000000000000000000000000000000 f
b00000000000000000000000000000000 g
1k
b10000100 l
b00000000000000000000000000000 n
b110001001 o
#27
b000000000000000000000000000000000000000000000000000000000 #
1%
b110001001 &
b110000100 '
b000000101 (
b000000000000000000000000000000000000000000000000000000000 )
b000000000000000000000000000000000000000000000000000000000 +
b000000000000000000000000000000000000000000000000000000000 -
b0000000000000000000000000000000000000000000000000000000000 /
b101010001 :
1=
b10000111 @
b000000000000000000000000000000000000000000000000000000000 Y
b000000000000000000000000000 [
b110001001 \
b10000100 ]
0^
1_
1a
b00000000000000000000000000000000 h
#28
b11000000000000000000000000000000 A
b01000000000000000000000000000000 B
b000000000000000000000000000 C
b11111111 F
0J
b00000000 K
b10000000000000000000000000000 L
b1110000000000000000000000000000000000000000000000000000000 M
b11 O
1S
b100000000000000000000000000000000000000000000000000000000 V
0a
b11000000000000000000000000000000 e
b01000000000000000000000000000000 f
b01000000000000000000000000000000 g
0k
b00000000 l
b01000000000000000000000000000 n
b111111111 o
#29
b010000000000000000000000000000000000000000000000000000000 #
0%
b000000000 &
b111111111 '
b000000001 (
b010000000000000000000000000000000000000000000000000000000 )
b100000000000000000000000000000000000000000000000000000000 +
b110000000000000000000000000000000000000000000000000000000 -
b1000000000000000000000000000000000000000000000000000000000 /
b111001000 :
0=
b11001000 @
b100000000000000000000000000000000000000000000000000000000 Y
b111111111 \
b00000000 ]
0_
1a
#30
b01111001001110001000011000000000 A
b11111111111111111111111111111111 B
b001110001000011000000000000 C
b00001101 F
b110000100000000000000000000 G
b10000111 K
b01001110001000011000000000000 L
b0010001001010101101110001100000000000000000000000000000000 M
b00 O
1Q
b001 R
0S
b10001001010101101110001100000000000000000000000000000000 T
b010001001010101101110001100000000000000000000000000000000 V
0a
b01 d
b01111001001110001000011000000000 e
b01101111000010000000000000000000 f
b00000000000000000000000000000001 g
b00000111 l
b01110000100000000000000000000 n
b000010101 o
#31
b100000000000000000000000000000000000000000000000000000000 #
1%
b000010101 &
b110000111 '
b010001110 (
b010001001010101101110001100000000000000000000000000000000 )
b111111111111111111111111111111111111111111111111111111111 -
b1010001001010101101110001011111111111111111111111111111111 /
b0010001001010101101110001011111111111111111111111111111111 2
b011001101111111011001001110000000000000000000000000000000 4
b111110 6
b000001 7
b00010010101011011100010111111111111111111111111111111110 8
b000010101 :
b000100101010110111000101111 ;
b11111111111111111111111111110 <
0?
b00010101 @
b010001001010101101110001100000000000000000000000000000000 Y
b000010101 \
b10000111 ]
1^
1a
#32
b11000000000000000000000000000000 A
b11000000000000000000000000000000 B
b000000000000000000000000000 C
b11111111 F
b000000000000000000000000000 G
b11111111 K
b10000000000000000000000000000 L
b0100000000000000000000000000000000000000000000000000000000 M
b01 O
1P
0Q
b010 R
b00000000000000000000000000000000000000000000000000000000 T
b010000000000000000000000000000000000000000000000000000000 V
0a
b00 d
b11000000000000000000000000000000 e
b11000000000000000000000000000000 f
b11000000000000000000000000000000 g
b11111111 l
b10000000000000000000000000000 n
b000000000 o
#33
b000000000 &
b111111111 '
b000000001 (
b010000000000000000000000000000000000000000000000000000000 )
b110000000000000000000000000000000000000000000000000000000 -
b1000000000000000000000000000000000000000000000000000000000 /
b0000000000000000000000000000000000000000000000000000000000 2
b000000000000000000000000000000000000000000000000000000000 4
b000110 6
b111001 7
b00000000000000000000000000000000000000000000000000000000 8
b111001000 :
b000000000000000000000000000 ;
b00000000000000000000000000000 <
1?
b11001000 @
b010000000000000000000000000000000000000000000000000000000 Y
b000000000 \
b11111111 ]
1a
b01111110010001001010101101110001 h
#34
b10000000000000000000000000000000 A
b00000000000000000000000000000001 B
1D
b01111011 F
b110000100000000000000000000 G
b10001000 K
b1100011111000000000000000000000000000000000000000000000000 M
b11 O
0P
1Q
b001 R
1S
b00011111000000000000000000000000000000000000000000000000 T
b100011111000000000000000000000000000000000000000000000000 V
0a
b10000000000000000000000000000000 e
b01101111000010000000000000000000 f
b00000000000000000000000000000001 g
b00000111 l
1m
b01110000100000000000000000000 n
b010000011 o
#35
b010000000000000000000000000000000000000000000000000000000 #
b010000011 &
b110001000 '
b011111011 (
b100011111000000000000000000000000000000000000000000000000 )
b010000000000000000000000000000000000000000000000000000000 +
b000000000000000000000000000000000000000000000000000000000 -
b0100011111000000000000000000000000000000000000000000000000 /
11
b1100011111000000000000000000000000000000000000000000000000 2
b010010000100000000000000000000000000000000000000000000000 4
b111110 6
b000001 7
b00111110000000000000000000000000000000000000000000000000 8
b010000011 :
b001111100000000000000000000 ;
1>
0?
b01111000 @
1X
b100011111000000000000000000000000000000000000000000000000 Y
b010000011 \
b10001000 ]
0^
1a
b00000000000000000000000000000000 h
#36
0a
#37
1a
b10000000000000000000000000000000 h
