run/wave/PositDivisionSqrt/PositDivSqrter8_0.vcd
$version Generated by VerilatedVcd $end
$date Thu Sep 16 15:19:24 2021
 $end
$timescale   1ns $end

 $scope module TOP $end
  $var wire  1 V clock $end
  $var wire  8 [ io_A [7:0] $end
  $var wire  8 \ io_B [7:0] $end
  $var wire  8 ` io_Q [7:0] $end
  $var wire  1 ] io_diviValid $end
  $var wire  1 X io_inReady $end
  $var wire  1 Y io_inValid $end
  $var wire  1 _ io_invalidExc $end
  $var wire  1 Z io_sqrtOp $end
  $var wire  1 ^ io_sqrtValid $end
  $var wire  1 W reset $end
  $scope module PositDivSqrter8_0 $end
   $var wire 11 T bitMask [10:0] $end
   $var wire  1 V clock $end
   $var wire  4 I cycleNum [3:0] $end
   $var wire  5 2 decA_fraction [4:0] $end
   $var wire  1 3 decA_isNaR $end
   $var wire  1 4 decA_isZero $end
   $var wire  4 5 decA_scale [3:0] $end
   $var wire  5 6 decB_fraction [4:0] $end
   $var wire  1 7 decB_isNaR $end
   $var wire  1 8 decB_isZero $end
   $var wire  4 9 decB_scale [3:0] $end
   $var wire  3 0 decQ_grs [2:0] $end
   $var wire  4 1 decQ_scale [3:0] $end
   $var wire  1 / decQ_sign $end
   $var wire  1 A entering $end
   $var wire  1 B entering_normalCase $end
   $var wire  5 O fractB_Z [4:0] $end
   $var wire  1 R idle $end
   $var wire  1 b invalidSqrt $end
   $var wire  8 [ io_A [7:0] $end
   $var wire  8 \ io_B [7:0] $end
   $var wire  8 ` io_Q [7:0] $end
   $var wire  1 ] io_diviValid $end
   $var wire  1 X io_inReady $end
   $var wire  1 Y io_inValid $end
   $var wire  1 _ io_invalidExc $end
   $var wire  1 Z io_sqrtOp $end
   $var wire  1 ^ io_sqrtValid $end
   $var wire  1 K isNaR_Z $end
   $var wire  1 L isZero_Z $end
   $var wire  1 H newBit $end
   $var wire  1 > normalCase_S $end
   $var wire  1 = normalCase_S_div $end
   $var wire  1 c normalCase_S_sqrt $end
   $var wire  1 ) notNeedSubTwo $end
   $var wire  1 @ oddSqrt_S $end
   $var wire  1 U outValid $end
   $var wire  1 . overflow $end
   $var wire  1 S ready $end
   $var wire  5 , realExp [4:0] $end
   $var wire  5 ' realFrac [4:0] $end
   $var wire 12 & realSigX [11:0] $end
   $var wire 12 C rem [11:0] $end
   $var wire  1 G remIsZero $end
   $var wire 12 P rem_Z [11:0] $end
   $var wire  1 W reset $end
   $var wire  5 ? sExpQuot_S_div [4:0] $end
   $var wire  1 ( scaleNeedSub $end
   $var wire  1 # scaleNotChange $end
   $var wire  1 * scaleSubOne $end
   $var wire  1 + scaleSubTwo $end
   $var wire  5 M scale_Z [4:0] $end
   $var wire 12 : sigA_S [11:0] $end
   $var wire 12 a sigB_S [11:0] $end
   $var wire  2 % sigXBias [1:0] $end
   $var wire 12 Q sigX_Z [11:0] $end
   $var wire  1 N signB_Z $end
   $var wire  1 $ skipCycle2 $end
   $var wire  1 ; specialCaseA_S $end
   $var wire  1 < specialCaseB_S $end
   $var wire  1 J sqrtOp_Z $end
   $var wire  1 F trIsZero $end
   $var wire 12 E trialRem [11:0] $end
   $var wire 12 D trialTerm [11:0] $end
   $var wire  1 - underflow $end
  $upscope $end
 $upscope $end
$enddefinitions $end


#0
0#
0$
b00 %
b000000000000 &
b00000 '
1(
0)
0*
1+
b11110 ,
0-
0.
0/
b000 0
b1110 1
b00000 2
03
14
b1001 5
b00000 6
07
18
b1001 9
b000100000000 :
1;
1<
0=
0>
b00000 ?
0@
0A
0B
b000100000000 C
b010000000000 D
b110100000000 E
0F
0G
0H
b0000 I
0J
0K
0L
b00000 M
0N
b00000 O
b000000000000 P
b000000000000 Q
1R
1S
b00000000000 T
0U
0V
1W
1X
0Y
0Z
b00000000 [
b00000000 \
0]
0^
0_
b00010000 `
b010000000000 a
0b
0c
#1
1V
#2
0V
#3
1V
#4
0V
#5
1V
#6
0V
#7
1V
#8
0V
#9
1V
#10
b00100 2
04
b1110 5
b000100100000 :
0;
1>
b00101 ?
1A
1B
b000100100000 C
b000100000000 D
b000000100000 E
1H
0V
0W
1Y
1Z
b00010010 [
1c
#11
1#
b001000000000 &
0(
0+
b11111 ,
b1111 1
0A
0B
b000000100000 C
b001010000000 D
b110111000000 E
0H
b1010 I
1J
b11111 M
b000000100000 P
b001000000000 Q
0R
0S
b00100000000 T
1V
0X
b00100000 `
#12
0V
0Y
#13
b110111000000 C
b001011000000 D
b111001000000 E
b1001 I
b110111000000 P
b00010000000 T
1V
#14
0V
#15
b111001000000 C
b001001100000 D
b111011100000 E
b1000 I
b111001000000 P
b00001000000 T
1V
#16
0V
#17
b111011100000 C
b001000110000 D
b111111110000 E
b0111 I
b111011100000 P
b00000100000 T
1V
#18
0V
#19
b111111110000 C
b001000011000 D
b000111111000 E
1H
b0110 I
b111111110000 P
b00000010000 T
1V
#20
0V
#21
b001000010000 &
b00001 '
b000111111000 C
b001000010100 D
b000111011100 E
b0101 I
b000111111000 P
b001000010000 Q
b00000001000 T
1V
b00100001 `
#22
0V
#23
b001000011000 &
b100 0
b000111011100 C
b001000011010 D
b000110011110 E
b0100 I
b000111011100 P
b001000011000 Q
b00000000100 T
1V
b00100010 `
#24
0V
#25
1$
b001000011100 &
b110 0
b000110011110 C
b001000011101 D
b000100011111 E
b0011 I
b000110011110 P
b001000011100 Q
b00000000010 T
1V
#26
0V
#27
0$
b001000011110 &
b111 0
b000100100000 C
b000100000000 D
b000000100000 E
b0001 I
b000100011111 P
b001000011110 Q
1S
b00000000000 T
1U
1V
1X
1^
#28
0V
#29
b0000 I
1R
0U
1V
0^
#30
0V
#31
1V
#32
0V
#33
1V
#34
0V
#35
1V
#36
0V
#37
1V
#38
0V
#39
1V
#40
b11100 2
b0000 5
b000111100000 :
b00111 ?
1A
1B
b000111100000 C
b000011100000 E
0V
1Y
b01011100 [
#41
b001000000000 &
b00000 '
b00000 ,
b000 0
b0000 1
0A
0B
b000011100000 C
b001010000000 D
b111101000000 E
0H
b1010 I
b00000 M
b000011100000 P
b001000000000 Q
0R
0S
b00100000000 T
1V
0X
b01000000 `
#42
0V
0Y
#43
b111101000000 C
b001011000000 D
b000101000000 E
1H
b1001 I
b111101000000 P
b00010000000 T
1V
#44
0V
#45
b001010000000 &
b01000 '
b000101000000 C
b001010100000 D
b111111100000 E
0H
b1000 I
b000101000000 P
b001010000000 Q
b00001000000 T
1V
b01001000 `
#46
0V
#47
b111111100000 C
b001010110000 D
b001001110000 E
1H
b0111 I
b111111100000 P
b00000100000 T
1V
#48
0V
#49
b001010100000 &
b01010 '
b001001110000 C
b001010101000 D
b001000111000 E
b0110 I
b001001110000 P
b001010100000 Q
b00000010000 T
1V
b01001010 `
#50
0V
#51
b001010110000 &
b01011 '
b001000111000 C
b001010110100 D
b000110111100 E
b0101 I
b001000111000 P
b001010110000 Q
b00000001000 T
1V
b01001011 `
#52
0V
#53
b001010111000 &
b100 0
b000110111100 C
b001010111010 D
b000010111110 E
b0100 I
b000110111100 P
b001010111000 Q
b00000000100 T
1V
b01001100 `
#54
0V
#55
1$
b001010111100 &
b110 0
b000010111110 C
b001010111101 D
b111010111111 E
0H
b0011 I
b000010111110 P
b001010111100 Q
b00000000010 T
1V
#56
0V
#57
0$
b000111100000 C
b000100000000 D
b000011100000 E
1H
b0001 I
b111010111111 P
1S
b00000000000 T
1U
1V
1X
1^
#58
0V
#59
b0000 I
1R
0U
1V
0^
#60
0V
#61
1V
#62
0V
#63
1V
#64
0V
#65
1V
#66
0V
#67
1V
#68
0V
#69
1V
#70
b01101 2
b1111 5
b000101101000 :
b00110 ?
1@
1A
1B
b001011010000 C
b000111010000 E
0V
1Y
b00101101 [
#71
b001000000000 &
b00000 '
b11111 ,
b000 0
b1111 1
0A
0B
b000111010000 C
b001010000000 D
b000100100000 E
b1010 I
b11111 M
b000111010000 P
b001000000000 Q
0R
0S
b00100000000 T
1V
0X
b00100000 `
#72
0V
0Y
#73
b001100000000 &
b10000 '
1)
b000100100000 C
b001101000000 D
b111100000000 E
0H
b1001 I
b000100100000 P
b001100000000 Q
b00010000000 T
1V
b00110000 `
#74
0V
#75
b111100000000 C
b001101100000 D
b000101100000 E
1H
b1000 I
b111100000000 P
b00001000000 T
1V
#76
0V
#77
b001101000000 &
b10100 '
b000101100000 C
b001101010000 D
b111101110000 E
0H
b0111 I
b000101100000 P
b001101000000 Q
b00000100000 T
1V
b00110100 `
#78
0V
#79
b111101110000 C
b001101011000 D
b001000111000 E
1H
b0110 I
b111101110000 P
b00000010000 T
1V
#80
0V
#81
b001101010000 &
b10101 '
b001000111000 C
b001101010100 D
b000100011100 E
b0101 I
b001000111000 P
b001101010000 Q
b00000001000 T
1V
b00110101 `
#82
0V
#83
b001101011000 &
b100 0
b000100011100 C
b001101011010 D
b111011011110 E
0H
b0100 I
b000100011100 P
b001101011000 Q
b00000000100 T
1V
b00110110 `
#84
0V
#85
1$
b111011011110 C
b001101011011 D
b000100010111 E
1H
b0011 I
b111011011110 P
b00000000010 T
1V
#86
0V
#87
0$
b001101011010 &
b101 0
b001011010000 C
b000100000000 D
b000111010000 E
b0001 I
b000100010111 P
b001101011010 Q
1S
b00000000000 T
1U
1V
1X
1^
#88
0V
#89
b0000 I
1R
0U
1V
0^
#90
0V
#91
1V
#92
0V
#93
1V
#94
0V
#95
1V
#96
0V
#97
1V
#98
0V
#99
1V
#100
b01010 2
b0001 5
b000101010000 :
b01000 ?
1A
1B
b001010100000 C
b000110100000 E
0V
1Y
b01100101 [
#101
b001000000000 &
b00000 '
0)
b00000 ,
b000 0
b0000 1
0A
0B
b000110100000 C
b001010000000 D
b000011000000 E
b1010 I
b00000 M
b000110100000 P
b001000000000 Q
0R
0S
b00100000000 T
1V
0X
b01000000 `
#102
0V
0Y
#103
b001100000000 &
b10000 '
1)
b000011000000 C
b001101000000 D
b111001000000 E
0H
b1001 I
b000011000000 P
b001100000000 Q
b00010000000 T
1V
b01010000 `
#104
0V
#105
b111001000000 C
b001101100000 D
b111111100000 E
b1000 I
b111001000000 P
b00001000000 T
1V
#106
0V
#107
b111111100000 C
b001100110000 D
b001011110000 E
1H
b0111 I
b111111100000 P
b00000100000 T
1V
#108
0V
#109
b001100100000 &
b10010 '
b001011110000 C
b001100101000 D
b001010111000 E
b0110 I
b001011110000 P
b001100100000 Q
b00000010000 T
1V
b01010010 `
#110
0V
#111
b001100110000 &
b10011 '
b001010111000 C
b001100110100 D
b001000111100 E
b0101 I
b001010111000 P
b001100110000 Q
b00000001000 T
1V
b01010011 `
#112
0V
#113
b001100111000 &
b100 0
b001000111100 C
b001100111010 D
b000100111110 E
b0100 I
b001000111100 P
b001100111000 Q
b00000000100 T
1V
b01010100 `
#114
0V
#115
1$
b001100111100 &
b110 0
b000100111110 C
b001100111101 D
b111100111111 E
0H
b0011 I
b000100111110 P
b001100111100 Q
b00000000010 T
1V
#116
0V
#117
0$
b001010100000 C
b000100000000 D
b000110100000 E
1H
b0001 I
b111100111111 P
1S
b00000000000 T
1U
1V
1X
1^
#118
0V
#119
b0000 I
1R
0U
1V
0^
