run/wave/PositEMA/PositEMA14_8_1.vcd
$version Generated by VerilatedVcd $end
$date Thu Sep 16 15:19:07 2021
 $end
$timescale   1ns $end

 $scope module TOP $end
  $var wire  1 3 clock $end
  $var wire  8 6 io_A [7:0] $end
  $var wire  8 7 io_B [7:0] $end
  $var wire 64 8 io_E [63:0] $end
  $var wire  1 5 io_inValid $end
  $var wire  1 : io_outValid $end
  $var wire  1 4 reset $end
  $scope module PositEMA14_8_1 $end
   $var wire  6 # absScale [5:0] $end
   $var wire  1 3 clock $end
   $var wire  4 & decA_fraction [3:0] $end
   $var wire  1 ; decA_isNaR $end
   $var wire  1 < decA_isZero $end
   $var wire  5 = decA_scale [4:0] $end
   $var wire  4 ' decB_fraction [3:0] $end
   $var wire  1 > decB_isNaR $end
   $var wire  1 ? decB_isZero $end
   $var wire  5 @ decB_scale [4:0] $end
   $var wire 64 $ extSig [63:0] $end
   $var wire  1 ( inValid_phase2 $end
   $var wire  1 , inValid_phase3 $end
   $var wire  8 6 io_A [7:0] $end
   $var wire  8 7 io_B [7:0] $end
   $var wire 64 8 io_E [63:0] $end
   $var wire  1 5 io_inValid $end
   $var wire  1 : io_outValid $end
   $var wire  6 B mulScale [5:0] $end
   $var wire  6 + mulScale_phase2 [5:0] $end
   $var wire 12 * mulSig_phase2 [11:0] $end
   $var wire  1 A outIsNaR $end
   $var wire  1 ) outIsNaR_phase2 $end
   $var wire  1 - outIsNaR_phase3 $end
   $var wire  1 2 quireIsNaR $end
   $var wire 64 0 quireReg [63:0] $end
   $var wire  1 4 reset $end
   $var wire 64 . shiftSig_phase3 [63:0] $end
   $var wire  6 C sigA [5:0] $end
   $var wire  6 D sigB [5:0] $end
   $var wire 12 E sigP [11:0] $end
  $upscope $end
 $upscope $end
$enddefinitions $end


#0
b000000 #
b0000000000000000000000000000000000000000000000000000000000000000 $
b0000 &
b0000 '
0(
0)
b000000000000 *
b000000 +
0,
0-
b0000000000000000000000000000000000000000000000000000000000000000 .
b0000000000000000000000000000000000000000000000000000000000000000 0
02
03
14
05
b00000000 6
b00000000 7
b0000000000000000000000000000000000000000000000000000000000000000 8
0:
0;
1<
b10010 =
0>
1?
b10010 @
0A
b100100 B
b000000 C
b000000 D
b000000000000 E
#1
13
#2
03
#3
13
#4
03
#5
13
#6
03
#7
13
#8
03
#9
13
#10
03
04
15
b01111111 6
b00000001 7
0<
b01100 =
0?
b10100 @
b000000 B
b010000 C
b010000 D
b000100000000 E
#11
b0000000000000000000000000000000000000001000000000000000000000000 $
1(
b000100000000 *
13
#12
b0110 &
03
b10011011 6
b01000000 7
b00010 =
b00000 @
b000010 B
b100110 C
b111001100000 E
#13
b000010 #
b1111111111111111111111111111111111111110011000000000000000000000 $
b111001100000 *
b000010 +
1,
b0000000000000000000000000000000000000001000000000000000000000000 .
13
#14
b1001 &
03
b01011001 6
b11000000 7
b00001 =
b11111 @
b000000 B
b011001 C
b100000 D
b110011100000 E
#15
b000000 #
b1111111111111111111111111111111111111100111000000000000000000000 $
b110011100000 *
b000000 +
b1111111111111111111111111111111111111001100000000000000000000000 .
b0000000000000000000000000000000000000001000000000000000000000000 0
13
b0000000000000000000000000000000000000001000000000000000000000000 8
1:
#16
b0000 &
03
b00000000 6
b01000000 7
1<
b10010 =
b00000 @
b110010 B
b000000 C
b010000 D
b000000000000 E
#17
b001110 #
b0000000000000000000000000000000000000000000000000000000000000000 $
b000000000000 *
b110010 +
b1111111111111111111111111111111111111100111000000000000000000000 .
b1111111111111111111111111111111111111010100000000000000000000000 0
13
b1111111111111111111111111111111111111010100000000000000000000000 8
#18
b1000 &
03
b11011000 6
b01101000 7
0<
b11110 =
b00011 @
b000001 B
b101000 C
b111010000000 E
#19
b000001 #
b1111111111111111111111111111111111111110100000000000000000000000 $
b111010000000 *
b000001 +
b0000000000000000000000000000000000000000000000000000000000000000 .
b1111111111111111111111111111111111110111011000000000000000000000 0
13
b1111111111111111111111111111111111110111011000000000000000000000 8
#20
b0000 &
03
b11000000 6
b11000000 7
b11111 =
b11111 @
b111110 B
b100000 C
b100000 D
b010000000000 E
#21
b000010 #
b0000000000000000000000000000000000000100000000000000000000000000 $
b010000000000 *
b111110 +
b1111111111111111111111111111111111111101000000000000000000000000 .
13
#22
03
b00100000 6
b00100000 7
b11110 =
b11110 @
b111100 B
b010000 C
b010000 D
b000100000000 E
#23
b000100 #
b0000000000000000000000000000000000000001000000000000000000000000 $
b000100000000 *
b111100 +
b0000000000000000000000000000000000000001000000000000000000000000 .
b1111111111111111111111111111111111110100011000000000000000000000 0
13
b1111111111111111111111111111111111110100011000000000000000000000 8
#24
03
b01111111 6
b01111111 7
b01100 =
b01100 @
b011000 B
#25
b011000 #
b011000 +
b0000000000000000000000000000000000000000000100000000000000000000 .
b1111111111111111111111111111111111110101011000000000000000000000 0
13
b1111111111111111111111111111111111110101011000000000000000000000 8
#26
03
b00000001 7
b10100 @
b000000 B
#27
b000000 #
b000000 +
b0000000000000001000000000000000000000000000000000000000000000000 .
b1111111111111111111111111111111111110101011100000000000000000000 0
13
b1111111111111111111111111111111111110101011100000000000000000000 8
#28
b0110 &
03
b10011011 6
b01000000 7
b00010 =
b00000 @
b000010 B
b100110 C
b111001100000 E
#29
b000010 #
b1111111111111111111111111111111111111110011000000000000000000000 $
b111001100000 *
b000010 +
b0000000000000000000000000000000000000001000000000000000000000000 .
b0000000000000000111111111111111111110101011100000000000000000000 0
13
b0000000000000000111111111111111111110101011100000000000000000000 8
#30
03
#31
b1111111111111111111111111111111111111001100000000000000000000000 .
b0000000000000000111111111111111111110110011100000000000000000000 0
13
b0000000000000000111111111111111111110110011100000000000000000000 8
