run/wave/PositEMA/PositEMA30_8_2.vcd
$version Generated by VerilatedVcd $end
$date Thu Sep 16 15:19:10 2021
 $end
$timescale   1ns $end

 $scope module TOP $end
  $var wire  1 9 clock $end
  $var wire  8 < io_A [7:0] $end
  $var wire  8 = io_B [7:0] $end
  $var wire 128 > io_E [127:0] $end
  $var wire  1 ; io_inValid $end
  $var wire  1 B io_outValid $end
  $var wire  1 : reset $end
  $scope module PositEMA30_8_2 $end
   $var wire  7 # absScale [6:0] $end
   $var wire  1 9 clock $end
   $var wire  3 ( decA_fraction [2:0] $end
   $var wire  1 C decA_isNaR $end
   $var wire  1 D decA_isZero $end
   $var wire  6 E decA_scale [5:0] $end
   $var wire  3 ) decB_fraction [2:0] $end
   $var wire  1 F decB_isNaR $end
   $var wire  1 G decB_isZero $end
   $var wire  6 H decB_scale [5:0] $end
   $var wire 128 $ extSig [127:0] $end
   $var wire  1 * inValid_phase2 $end
   $var wire  1 . inValid_phase3 $end
   $var wire  8 < io_A [7:0] $end
   $var wire  8 = io_B [7:0] $end
   $var wire 128 > io_E [127:0] $end
   $var wire  1 ; io_inValid $end
   $var wire  1 B io_outValid $end
   $var wire  7 J mulScale [6:0] $end
   $var wire  7 - mulScale_phase2 [6:0] $end
   $var wire 10 , mulSig_phase2 [9:0] $end
   $var wire  1 I outIsNaR $end
   $var wire  1 + outIsNaR_phase2 $end
   $var wire  1 / outIsNaR_phase3 $end
   $var wire  1 8 quireIsNaR $end
   $var wire 128 4 quireReg [127:0] $end
   $var wire  1 : reset $end
   $var wire 128 0 shiftSig_phase3 [127:0] $end
   $var wire  5 K sigA [4:0] $end
   $var wire  5 L sigB [4:0] $end
   $var wire 10 M sigP [9:0] $end
  $upscope $end
 $upscope $end
$enddefinitions $end


#0
b0000000 #
b00000000000000000000000000000000000000000000000000000000000000000000000000000000000000000000000000000000000000000000000000000000 $
b000 (
b000 )
0*
0+
b0000000000 ,
b0000000 -
0.
0/
b00000000000000000000000000000000000000000000000000000000000000000000000000000000000000000000000000000000000000000000000000000000 0
b00000000000000000000000000000000000000000000000000000000000000000000000000000000000000000000000000000000000000000000000000000000 4
08
09
1:
0;
b00000000 <
b00000000 =
b00000000000000000000000000000000000000000000000000000000000000000000000000000000000000000000000000000000000000000000000000000000 >
0B
0C
1D
b100100 E
0F
1G
b100100 H
0I
b1001000 J
b00000 K
b00000 L
b0000000000 M
#1
19
#2
09
#3
19
#4
09
#5
19
#6
09
#7
19
#8
09
#9
19
#10
09
0:
1;
b11000000 <
0D
b111111 E
b1100011 J
b10000 K
#11
b0011101 #
1*
b1100011 -
19
#12
09
b01111111 <
b00000001 =
b011000 E
0G
b101000 H
b0000000 J
b01000 K
b01000 L
b0001000000 M
#13
b0000000 #
b00000000000000000000000000000000000000000000000000000000000000000000000000000001000000000000000000000000000000000000000000000000 $
b0001000000 ,
b0000000 -
1.
19
#14
b011 (
09
b10101011 <
b01000000 =
b000010 E
b000000 H
b0000010 J
b10011 K
b1110011000 M
#15
b0000010 #
b11111111111111111111111111111111111111111111111111111111111111111111111111111110011000000000000000000000000000000000000000000000 $
b1110011000 ,
b0000010 -
b00000000000000000000000000000000000000000000000000000000000000000000000000000001000000000000000000000000000000000000000000000000 0
19
1B
#16
b101 (
09
b01001101 <
b11000000 =
b000001 E
b111111 H
b0000000 J
b01101 K
b10000 L
b1100110000 M
#17
b0000000 #
b11111111111111111111111111111111111111111111111111111111111111111111111111111100110000000000000000000000000000000000000000000000 $
b1100110000 ,
b0000000 -
b11111111111111111111111111111111111111111111111111111111111111111111111111111001100000000000000000000000000000000000000000000000 0
b00000000000000000000000000000000000000000000000000000000000000000000000000000001000000000000000000000000000000000000000000000000 4
19
b00000000000000000000000000000000000000000000000000000000000000000000000000000001000000000000000000000000000000000000000000000000 >
#18
b000 (
09
b00000000 <
b01000000 =
1D
b100100 E
b000000 H
b1100100 J
b00000 K
b01000 L
b0000000000 M
#19
b0011100 #
b00000000000000000000000000000000000000000000000000000000000000000000000000000000000000000000000000000000000000000000000000000000 $
b0000000000 ,
b1100100 -
b11111111111111111111111111111111111111111111111111111111111111111111111111111100110000000000000000000000000000000000000000000000 0
b11111111111111111111111111111111111111111111111111111111111111111111111111111010100000000000000000000000000000000000000000000000 4
19
b11111111111111111111111111111111111111111111111111111111111111111111111111111010100000000000000000000000000000000000000000000000 >
#20
b100 (
09
b11001100 <
b01011000 =
0D
b111110 E
b000011 H
b0000001 J
b10100 K
b1110100000 M
#21
b0000001 #
b11111111111111111111111111111111111111111111111111111111111111111111111111111110100000000000000000000000000000000000000000000000 $
b1110100000 ,
b0000001 -
b00000000000000000000000000000000000000000000000000000000000000000000000000000000000000000000000000000000000000000000000000000000 0
b11111111111111111111111111111111111111111111111111111111111111111111111111110111010000000000000000000000000000000000000000000000 4
19
b11111111111111111111111111111111111111111111111111111111111111111111111111110111010000000000000000000000000000000000000000000000 >
#22
b000 (
09
b11000000 <
b11000000 =
b111111 E
b111111 H
b1111110 J
b10000 K
b10000 L
b0100000000 M
#23
b0000010 #
b00000000000000000000000000000000000000000000000000000000000000000000000000000100000000000000000000000000000000000000000000000000 $
b0100000000 ,
b1111110 -
b11111111111111111111111111111111111111111111111111111111111111111111111111111101000000000000000000000000000000000000000000000000 0
19
#24
09
b00110000 <
b00110000 =
b111110 E
b111110 H
b1111100 J
b01000 K
b01000 L
b0001000000 M
#25
b0000100 #
b00000000000000000000000000000000000000000000000000000000000000000000000000000001000000000000000000000000000000000000000000000000 $
b0001000000 ,
b1111100 -
b00000000000000000000000000000000000000000000000000000000000000000000000000000001000000000000000000000000000000000000000000000000 0
b11111111111111111111111111111111111111111111111111111111111111111111111111110100010000000000000000000000000000000000000000000000 4
19
b11111111111111111111111111111111111111111111111111111111111111111111111111110100010000000000000000000000000000000000000000000000 >
#26
09
b11000000 <
b00000000 =
b111111 E
1G
b100100 H
b1100011 J
b10000 K
b00000 L
b0000000000 M
#27
b0011101 #
b00000000000000000000000000000000000000000000000000000000000000000000000000000000000000000000000000000000000000000000000000000000 $
b0000000000 ,
b1100011 -
b00000000000000000000000000000000000000000000000000000000000000000000000000000000000100000000000000000000000000000000000000000000 0
b11111111111111111111111111111111111111111111111111111111111111111111111111110101010000000000000000000000000000000000000000000000 4
19
b11111111111111111111111111111111111111111111111111111111111111111111111111110101010000000000000000000000000000000000000000000000 >
#28
09
b01111111 <
b00000001 =
b011000 E
0G
b101000 H
b0000000 J
b01000 K
b01000 L
b0001000000 M
#29
b0000000 #
b00000000000000000000000000000000000000000000000000000000000000000000000000000001000000000000000000000000000000000000000000000000 $
b0001000000 ,
b0000000 -
b00000000000000000000000000000000000000000000000000000000000000000000000000000000000000000000000000000000000000000000000000000000 0
b11111111111111111111111111111111111111111111111111111111111111111111111111110101010100000000000000000000000000000000000000000000 4
19
b11111111111111111111111111111111111111111111111111111111111111111111111111110101010100000000000000000000000000000000000000000000 >
#30
09
#31
b00000000000000000000000000000000000000000000000000000000000000000000000000000001000000000000000000000000000000000000000000000000 0
19
